%YAML 1.1
%TAG !u! tag:unity3d.com,2011:
--- !u!114 &8242390086790802037
MonoBehaviour:
  m_ObjectHideFlags: 0
  m_CorrespondingSourceObject: {fileID: 0}
  m_PrefabInstance: {fileID: 0}
  m_PrefabAsset: {fileID: 0}
  m_GameObject: {fileID: 4428157852179083358}
  m_Enabled: 1
  m_EditorHideFlags: 0
  m_Script: {fileID: 11500000, guid: 10588d1ea389ce54383bb96523eff521, type: 3}
  m_Name: 
  m_EditorClassIdentifier: 
  reach: 100
  reloadSpeed: 1.5
  button: 51
  anim: {fileID: 0}
  particleGameObject: {fileID: 0}
  model: {fileID: 4428157852179083358}
  isReloaded: 0
  playerPos: {fileID: 0}
--- !u!1001 &5643598625544268119
PrefabInstance:
  m_ObjectHideFlags: 0
  serializedVersion: 2
  m_Modification:
    m_TransformParent: {fileID: 0}
    m_Modifications:
    - target: {fileID: -4216859302048453862, guid: ca2ea8da34ff47d458b9df1626cf772c,
        type: 3}
      propertyPath: m_LocalPosition.x
      value: 0
      objectReference: {fileID: 0}
    - target: {fileID: -4216859302048453862, guid: ca2ea8da34ff47d458b9df1626cf772c,
        type: 3}
      propertyPath: m_LocalPosition.y
      value: 0
      objectReference: {fileID: 0}
    - target: {fileID: -4216859302048453862, guid: ca2ea8da34ff47d458b9df1626cf772c,
        type: 3}
      propertyPath: m_LocalPosition.z
      value: -0.15
      objectReference: {fileID: 0}
    - target: {fileID: -4216859302048453862, guid: ca2ea8da34ff47d458b9df1626cf772c,
        type: 3}
      propertyPath: m_LocalRotation.x
      value: 0.6242618
      objectReference: {fileID: 0}
    - target: {fileID: -4216859302048453862, guid: ca2ea8da34ff47d458b9df1626cf772c,
        type: 3}
      propertyPath: m_LocalRotation.y
      value: 0.013632793
      objectReference: {fileID: 0}
    - target: {fileID: -4216859302048453862, guid: ca2ea8da34ff47d458b9df1626cf772c,
        type: 3}
      propertyPath: m_LocalRotation.z
      value: -0.010896557
      objectReference: {fileID: 0}
    - target: {fileID: -4216859302048453862, guid: ca2ea8da34ff47d458b9df1626cf772c,
        type: 3}
      propertyPath: m_LocalRotation.w
      value: 0.7810203
      objectReference: {fileID: 0}
    - target: {fileID: -4216859302048453862, guid: ca2ea8da34ff47d458b9df1626cf772c,
        type: 3}
      propertyPath: m_RootOrder
      value: 0
      objectReference: {fileID: 0}
    - target: {fileID: -4216859302048453862, guid: ca2ea8da34ff47d458b9df1626cf772c,
        type: 3}
      propertyPath: m_LocalEulerAnglesHint.x
      value: 77.27
      objectReference: {fileID: 0}
    - target: {fileID: -4216859302048453862, guid: ca2ea8da34ff47d458b9df1626cf772c,
        type: 3}
      propertyPath: m_LocalEulerAnglesHint.y
      value: 2
      objectReference: {fileID: 0}
    - target: {fileID: -4216859302048453862, guid: ca2ea8da34ff47d458b9df1626cf772c,
        type: 3}
      propertyPath: m_LocalEulerAnglesHint.z
      value: 0
      objectReference: {fileID: 0}
    - target: {fileID: -4216859302048453862, guid: ca2ea8da34ff47d458b9df1626cf772c,
        type: 3}
      propertyPath: m_LocalScale.x
      value: 15
      objectReference: {fileID: 0}
    - target: {fileID: -4216859302048453862, guid: ca2ea8da34ff47d458b9df1626cf772c,
        type: 3}
      propertyPath: m_LocalScale.y
      value: 15
      objectReference: {fileID: 0}
    - target: {fileID: -4216859302048453862, guid: ca2ea8da34ff47d458b9df1626cf772c,
        type: 3}
      propertyPath: m_LocalScale.z
      value: 15
      objectReference: {fileID: 0}
    - target: {fileID: -927199367670048503, guid: ca2ea8da34ff47d458b9df1626cf772c,
        type: 3}
      propertyPath: m_Name
      value: Grabber
      objectReference: {fileID: 0}
    m_RemovedComponents: []
  m_SourcePrefab: {fileID: 100100000, guid: ca2ea8da34ff47d458b9df1626cf772c, type: 3}
--- !u!1 &4428157852179083358 stripped
GameObject:
  m_CorrespondingSourceObject: {fileID: -927199367670048503, guid: ca2ea8da34ff47d458b9df1626cf772c,
    type: 3}
  m_PrefabInstance: {fileID: 5643598625544268119}
  m_PrefabAsset: {fileID: 0}
